
**** Runs the Mann-Kendall test for trend in time series data ****

   Input File: e0.dat
  Equil. size: 20000
   Block size: 900
    Test type: up

<<<< MEAN >>>>

  P=  75.00 Z= 0.6745	reject Ha := upward trend
  P=  90.00 Z= 1.2816	reject Ha := upward trend
  P=  95.00 Z= 1.6449	reject Ha := upward trend
  P=  97.50 Z= 1.9600	reject Ha := upward trend

<<<< STD >>>>

  P=  75.00 Z= 0.6745	reject Ha := upward trend
  P=  90.00 Z= 1.2816	reject Ha := upward trend
  P=  95.00 Z= 1.6449	reject Ha := upward trend
  P=  97.50 Z= 1.9600	reject Ha := upward trend

<<<< Linear Fit >>>> 

	NSize = 180000

	Mean =   -23.911332

	E(t) =   -23.908792 -2.822787e-08 .t


